F:\STSWorkspace\RestaurantTableReservation_Services\src\main\java\com\iit\edu\itmd567\fp\response\LocationDetails.java
F:\STSWorkspace\RestaurantTableReservation_Services\src\main\java\com\iit\edu\itmd567\fp\constants\QueryParams.java
F:\STSWorkspace\RestaurantTableReservation_Services\src\main\java\com\iit\edu\itmd567\fp\enums\AddressType.java
F:\STSWorkspace\RestaurantTableReservation_Services\src\main\java\com\iit\edu\itmd567\fp\exception\CustomerException.java
F:\STSWorkspace\RestaurantTableReservation_Services\src\main\java\com\iit\edu\itmd567\fp\model\Contact.java
F:\STSWorkspace\RestaurantTableReservation_Services\src\main\java\com\iit\edu\itmd567\fp\model\CommonEntity.java
F:\STSWorkspace\RestaurantTableReservation_Services\src\main\java\com\iit\edu\itmd567\fp\constants\RestaurantConstants.java
F:\STSWorkspace\RestaurantTableReservation_Services\src\main\java\com\iit\edu\itmd567\fp\controller\RestaurantController.java
F:\STSWorkspace\RestaurantTableReservation_Services\src\main\java\com\iit\edu\itmd567\fp\controller\ReservationController.java
F:\STSWorkspace\RestaurantTableReservation_Services\src\main\java\com\iit\edu\itmd567\fp\response\Review.java
F:\STSWorkspace\RestaurantTableReservation_Services\src\main\java\com\iit\edu\itmd567\fp\service\ReservationService.java
F:\STSWorkspace\RestaurantTableReservation_Services\src\main\java\com\iit\edu\itmd567\fp\model\Address.java
F:\STSWorkspace\RestaurantTableReservation_Services\src\main\java\com\iit\edu\itmd567\fp\controller\CustomerController.java
F:\STSWorkspace\RestaurantTableReservation_Services\src\main\java\com\iit\edu\itmd567\fp\model\Customer.java
F:\STSWorkspace\RestaurantTableReservation_Services\src\main\java\com\iit\edu\itmd567\fp\security\ResourceServerConfiguration.java
F:\STSWorkspace\RestaurantTableReservation_Services\src\main\java\com\iit\edu\itmd567\fp\repository\CustomerRepository.java
F:\STSWorkspace\RestaurantTableReservation_Services\src\main\java\com\iit\edu\itmd567\fp\response\LocationsRequest.java
F:\STSWorkspace\RestaurantTableReservation_Services\src\main\java\com\iit\edu\itmd567\fp\response\Location.java
F:\STSWorkspace\RestaurantTableReservation_Services\src\main\java\com\iit\edu\itmd567\fp\service\CustomerService.java
F:\STSWorkspace\RestaurantTableReservation_Services\src\main\java\com\iit\edu\itmd567\fp\controller\UserRegisterController.java
F:\STSWorkspace\RestaurantTableReservation_Services\src\main\java\com\iit\edu\itmd567\fp\response\ReviewsDetails.java
F:\STSWorkspace\RestaurantTableReservation_Services\src\main\java\com\iit\edu\itmd567\fp\exception\ExceptionControllerAdvice.java
F:\STSWorkspace\RestaurantTableReservation_Services\src\main\java\com\iit\edu\itmd567\fp\model\CustomerData.java
F:\STSWorkspace\RestaurantTableReservation_Services\src\main\java\com\iit\edu\itmd567\fp\response\CollectionsDetails.java
F:\STSWorkspace\RestaurantTableReservation_Services\src\main\java\com\iit\edu\itmd567\fp\response\Collection.java
F:\STSWorkspace\RestaurantTableReservation_Services\src\main\java\com\iit\edu\itmd567\fp\response\RestaurantsDetails.java
F:\STSWorkspace\RestaurantTableReservation_Services\src\main\java\com\iit\edu\itmd567\fp\response\User.java
F:\STSWorkspace\RestaurantTableReservation_Services\src\main\java\com\iit\edu\itmd567\fp\exception\ErrorResponse.java
F:\STSWorkspace\RestaurantTableReservation_Services\src\main\java\com\iit\edu\itmd567\fp\model\Reservation.java
F:\STSWorkspace\RestaurantTableReservation_Services\src\main\java\com\iit\edu\itmd567\fp\enums\UserType.java
F:\STSWorkspace\RestaurantTableReservation_Services\src\main\java\com\iit\edu\itmd567\fp\generator\ReservationIdGenerator.java
F:\STSWorkspace\RestaurantTableReservation_Services\src\main\java\com\iit\edu\itmd567\fp\response\CollectionRequest.java
F:\STSWorkspace\RestaurantTableReservation_Services\src\main\java\com\iit\edu\itmd567\fp\response\Restaurant.java
F:\STSWorkspace\RestaurantTableReservation_Services\src\main\java\com\iit\edu\itmd567\fp\enums\Titles.java
F:\STSWorkspace\RestaurantTableReservation_Services\src\main\java\com\iit\edu\itmd567\fp\response\UserReviews.java
F:\STSWorkspace\RestaurantTableReservation_Services\src\main\java\com\iit\edu\itmd567\fp\enums\ReservationStatus.java
F:\STSWorkspace\RestaurantTableReservation_Services\src\main\java\com\iit\edu\itmd567\fp\security\AuthorizationServerConfiguration.java
F:\STSWorkspace\RestaurantTableReservation_Services\src\main\java\com\iit\edu\itmd567\fp\response\Restaurants.java
F:\STSWorkspace\RestaurantTableReservation_Services\src\main\java\com\iit\edu\itmd567\fp\service\RestaurantService.java
F:\STSWorkspace\RestaurantTableReservation_Services\src\main\java\com\iit\edu\itmd567\fp\security\OAuth2SecurityConfiguration.java
F:\STSWorkspace\RestaurantTableReservation_Services\src\main\java\com\iit\edu\itmd567\fp\generator\CustomerIdGenerator.java
F:\STSWorkspace\RestaurantTableReservation_Services\src\main\java\com\iit\edu\itmd567\fp\repository\ReservationRepository.java
F:\STSWorkspace\RestaurantTableReservation_Services\src\main\java\com\iit\edu\itmd567\fp\response\UserRating.java
F:\STSWorkspace\RestaurantTableReservation_Services\src\main\java\com\iit\edu\itmd567\fp\model\ReservationsData.java
F:\STSWorkspace\RestaurantTableReservation_Services\src\main\java\com\iit\edu\itmd567\fp\security\CustomUserDetails.java
